{
    "step-types": {
        "script-module-step": [
            {
                "@type-id": "custom.JobTest",
                "module": "sfra_training/cartridge/scripts/jobs/jobtest.js",
                "function": "JobTest",
                "parameters": {
                    "parameters": [
                        {
                            "@name": "TestParam",
                            "description": "Test param",
                            "@type": "string",
                            "@required": true,
                            "@trim": true
                        },
                        {
                            "@name": "testParam2",
                            "description": "asdasd",
                            "@type": "string",
                            "@required": true,
                            "@trim": true
                        }
                    ]
                },
                "status-codes": {
                    "status": [
                        {
                            "@code": "ERROR",
                            "description": "Used when an error occurred."
                        },
                        {
                            "@code": "OK",
                            "description": "Used when everything went well."
                        }
                    ]
                }
            },
            {
                "@type-id": "custom.ProductsJob",
                "module": "sfra_training/cartridge/scripts/jobs/productsjob.js",
                "function": "reportCustomProducts",
                "parameters": {
                    "parameters": [
                        {
                            "@name": "customObjectType",
                            "description": "CustomType name",
                            "@type": "string",
                            "@required": true,
                            "@trim": true
                        }
                    ]
                },
                "status-codes": {
                    "status": [
                        {
                            "@code": "ERROR",
                            "description": "CustomType not found or no instances exist."
                        },
                        {
                            "@code": "OK",
                            "description": "Everything went well."
                        }
                    ]
                }
            }
        ]
    }
}